# 3ds Max Wavefront OBJ Exporter v0.97b - (c)2007 guruware
# File Created: 15.05.2017 11:13:52

newmtl Paladin_MAT
	Ns 43.2193
	Ni 1.5000
	d 1.0000
	Tr 0.0000
	Tf 1.0000 1.0000 1.0000 
	illum 2
	Ka 0.0000 0.0000 0.0000
	Kd 1.0000 1.0000 1.0000
	Ks 0.5000 0.5000 0.5000
	Ke 0.0000 0.0000 0.0000
	map_Ka Textures\Paladin_diffuse.png
	map_Kd Textures\Paladin_diffuse.png
	map_Ks Textures\Paladin_specular.png
