# 3ds Max Wavefront OBJ Exporter v0.97b - (c)2007 guruware
# File Created: 25.04.2017 13:53:45

mtllib Mine2.mtl

#
# object mine
#

v  -0.9610 0.0000 4.3388
v  3.5403 0.0000 3.6890
v  3.5403 0.4483 3.6890
v  -0.8326 0.4483 4.3388
v  -0.4513 0.8966 3.7534
v  3.1175 0.8966 3.2142
v  3.5686 0.8966 2.6259
v  2.4338 0.9064 0.3845
v  -1.1350 0.8966 3.3720
v  4.0732 0.4483 2.9370
v  4.0732 0.0000 2.9370
v  3.9189 0.0000 -0.4289
v  3.9189 0.4483 -0.4289
v  3.1175 0.4483 3.2142
v  -0.4513 0.4483 3.7534
v  3.5686 0.4483 2.6259
v  3.5376 0.4483 0.1566
v  3.5376 0.8966 0.1566
v  1.1412 1.3060 2.2929
v  1.8310 1.3060 1.9814
v  2.1166 2.1086 2.1572
v  1.0843 2.1086 2.6234
v  1.2373 2.0261 2.2786
v  1.7568 2.0261 2.0440
v  1.2746 2.0261 0.9761
v  0.7550 2.0261 1.2107
v  0.3953 2.1086 1.0975
v  1.4276 2.1086 0.6314
v  1.3706 1.3060 0.9619
v  0.6809 1.3060 1.2733
v  1.9332 2.1086 2.0954
v  1.1592 2.1086 2.4449
v  1.3527 2.1086 0.8098
v  0.5787 2.1086 1.1594
v  1.3594 1.1955 0.7853
v  1.3598 1.4169 0.7851
v  1.5291 1.4165 0.7086
v  1.5286 1.1951 0.7089
v  1.4390 1.5276 0.9597
v  1.6082 1.5272 0.8833
v  1.5177 1.4169 1.1346
v  1.6869 1.4165 1.0582
v  1.5172 1.1955 1.1348
v  1.6864 1.1951 1.0584
v  1.4380 1.0848 0.9601
v  1.6073 1.0844 0.8837
v  1.7933 1.1955 1.7463
v  1.7938 1.4169 1.7461
v  1.9630 1.4165 1.6697
v  1.9626 1.1951 1.6699
v  1.8729 1.5276 1.9207
v  2.0422 1.5272 1.8443
v  1.9516 1.4169 2.0956
v  2.1208 1.4165 2.0192
v  1.9512 1.1955 2.0958
v  2.1204 1.1951 2.0194
v  1.8720 1.0848 1.9212
v  2.0412 1.0844 1.8447
v  0.8110 1.1955 2.1899
v  0.8115 1.4169 2.1896
v  0.9807 1.4165 2.1132
v  0.9803 1.1951 2.1134
v  0.8906 1.5276 2.3643
v  1.0599 1.5272 2.2879
v  0.9693 1.4169 2.5392
v  1.1386 1.4165 2.4627
v  0.9688 1.1955 2.5394
v  1.1381 1.1951 2.4630
v  0.8897 1.0848 2.3647
v  1.0590 1.0844 2.2883
v  0.3771 1.1955 1.2288
v  0.3776 1.4169 1.2286
v  0.5468 1.4165 1.1522
v  0.5463 1.1951 1.1524
v  0.4567 1.5276 1.4033
v  0.6259 1.5272 1.3269
v  0.5354 1.4169 1.5781
v  0.7046 1.4165 1.5017
v  0.5349 1.1955 1.5784
v  0.7041 1.1951 1.5019
v  0.4558 1.0848 1.4037
v  0.6250 1.0844 1.3273
v  1.8139 0.9066 0.0216
v  2.3116 0.9066 -0.0492
v  2.2150 3.3693 0.0685
v  1.7172 3.3955 0.1392
v  1.6602 3.4200 -0.2710
v  2.1580 3.3938 -0.3417
v  2.2546 0.9066 -0.4594
v  1.7569 0.9066 -0.3886
v  -0.7596 0.8966 0.1568
v  -0.2562 0.8940 0.1568
v  -0.0544 3.4579 0.4049
v  -0.5578 3.4579 0.4049
v  -0.5578 3.4715 -0.0098
v  -0.0544 3.4715 -0.0098
v  -0.2562 0.8940 -0.2579
v  -0.7596 0.8966 -0.2579
v  2.2450 0.0000 -3.5458
v  2.3723 0.6173 -3.7455
v  2.8646 0.3596 -3.9392
v  2.7033 0.0000 -3.7631
v  3.1964 0.2236 -3.7700
v  3.1679 0.0000 -3.5441
v  2.6958 1.1575 -3.3688
v  3.0558 0.7165 -3.6819
v  3.2422 1.0638 -3.4083
v  3.5376 0.7301 -3.4909
v  3.4775 0.4876 -3.6781
v  3.4104 0.0000 -3.3497
v  2.7700 1.0613 -2.9608
v  2.3452 2.5492 0.4873
v  2.2512 0.9166 0.0190
v  2.8654 1.6293 -0.4744
v  3.0238 2.5492 -0.2347
v  2.2089 3.6887 0.1760
v  -0.1528 2.5492 -0.6144
v  -0.4802 3.8335 0.2910
v  -0.4845 3.7376 0.4964
v  -0.5955 2.5492 0.8290
v  0.4000 5.6071 0.3706
v  2.1560 4.8144 -0.2440
v  2.7706 5.6071 -2.0000
v  0.4000 6.6264 -2.0000
v  2.1560 4.8144 -3.7560
v  0.4000 5.6071 -4.3706
v  -1.3560 4.8144 -3.7560
v  -1.9706 5.6071 -2.0000
v  -1.3560 4.8144 -0.2440
v  2.7706 2.5492 -4.3706
v  0.4000 2.5492 -5.1608
v  0.4000 0.0000 -4.3706
v  -1.3560 0.0000 -3.7560
v  -1.9706 2.5492 -4.3706
v  3.2914 2.5492 -2.8082
v  2.9604 1.8855 -3.1613
v  3.3633 3.3137 -2.0000
v  3.1848 2.5492 -0.7640
v  0.4000 4.0463 0.7925
v  -1.5778 3.9972 -0.0222
v  -1.2830 2.5492 0.5998
v  -0.8916 1.6148 0.4337
v  1.8679 2.5492 -1.2880
v  2.0939 3.7258 -0.1636
v  3.1783 3.0722 -1.1867
v  -2.1571 4.8856 -2.0000
v  -1.9041 4.1795 -3.1327
v  -2.1946 2.5492 -3.6986
v  -1.5891 0.0000 -3.0901
v  -1.6482 3.1128 0.3049
v  1.6974 0.9066 -1.4428
v  -0.1528 0.8940 -0.8087
v  -0.6896 0.8952 0.2726
v  -0.9404 0.9026 0.1894
v  -3.4371 3.6177 -2.7485
v  -3.8894 4.2011 -1.4564
v  -3.4371 3.6177 -0.1642
v  -2.1449 4.2011 0.2881
v  -3.4371 0.0000 -2.7485
v  -3.8894 1.9509 -3.2008
v  -4.4708 1.9509 -1.4564
v  -3.8894 0.0000 -1.4564
v  -2.1449 3.3529 0.5072
v  -2.7157 3.4699 0.2106
v  -3.6514 2.8280 0.0501
v  -3.9493 1.9509 0.1082
v  -3.9314 1.3690 -0.3585
v  -3.4371 0.0000 -0.1642
v  -1.2609 1.3768 1.5014
v  -1.7182 2.5523 1.3774
v  -2.6768 2.7982 1.7475
v  -2.4899 1.1648 1.8870
v  -3.2588 1.2624 1.7000
v  -3.5404 2.3412 1.3459
v  -3.4720 0.7908 1.3587
v  -1.5940 3.1490 0.5480
v  -2.7417 3.5278 0.6158
v  -3.9098 2.8640 0.5054
v  -3.5863 0.0000 0.0400
v  -3.2652 0.0000 0.9498
v  -4.1339 1.2526 0.2310
v  -2.3718 0.8864 1.7772
v  -1.3230 0.9073 1.3241
v  3.3700 1.5649 -0.2815
v  4.4113 2.4717 -0.3792
v  3.6055 3.2005 -0.6390
v  5.3705 2.7054 -0.9019
v  4.5492 3.6223 -1.6205
v  5.5729 2.3018 -1.9237
v  5.1736 2.9711 -2.7240
v  4.1196 2.8654 -3.0786
v  5.6758 0.9812 -2.1274
v  4.9562 1.3234 -3.2545
v  4.8636 0.0000 -2.1948
v  4.3402 0.0000 -3.0425
v  3.7140 1.7421 -3.6866
v  4.5371 0.0000 -1.2204
v  5.2188 0.9691 -0.8250
v  4.1077 1.2106 -0.0424
v  2.9621 1.2838 0.1820
v  3.3296 1.3737 0.0635
v  -2.1711 0.8988 3.5699
v  -1.9566 1.1030 3.6472
v  -2.0344 0.9686 3.3876
v  -1.6880 1.2540 3.3978
v  -1.8286 0.8966 3.0263
v  -1.4817 0.2760 4.5600
v  -1.7833 0.0000 3.9810
v  -1.2017 0.5384 4.4514
v  -1.7447 1.0271 4.2624
v  -1.2138 1.1354 3.9914
v  -1.3402 0.8966 3.0521
v  -2.2042 0.0000 3.4141
v  -2.1814 0.0000 3.6380
v  -2.1390 0.6302 3.9237
v  -2.1685 0.3954 3.6976
v  -2.2125 0.7814 3.6070
v  -3.1563 0.0000 2.8564
v  -3.5293 0.4674 2.2291
v  -3.5686 0.0000 2.2701
v  -3.0454 0.4871 2.9251
v  -3.5205 1.0000 2.3892
v  -3.5555 1.0041 1.9332
v  -3.7144 0.6268 1.7294
v  -3.6453 0.0000 1.6557
v  -2.8230 0.9140 2.7276
v  -3.0230 1.1254 2.1816
v  -2.8810 0.7343 2.8164
v  -2.3437 0.9448 2.5782
v  -2.2489 0.8911 2.5616
v  -2.5855 0.0000 3.3342
v  -2.5566 0.6359 3.6976
v  -2.9673 0.3596 3.4450
v  -3.0309 0.0000 3.0781
v  -2.5179 1.0161 3.5922
v  -2.8761 0.7165 3.1377
v  -2.4096 1.1575 3.2380
v  -2.7689 1.0638 2.8245
v  -2.0266 1.1318 3.1390
v  -3.9295 0.4434 0.6441
v  -4.4862 1.1358 0.6005
v  -4.6299 1.2882 1.1512
v  -4.1291 0.6414 1.5476
v  -4.9800 1.2645 1.4814
v  -4.7783 0.8373 1.7733
v  -5.2783 1.3258 0.9108
v  -5.1198 0.7745 0.2488
v  -5.5674 0.9415 0.6763
v  -5.6745 1.0077 1.1296
v  -5.0829 0.3256 0.1692
v  -5.6037 0.3629 0.7405
v  -5.7158 0.4906 1.2984
v  -4.7341 1.0198 0.2634
v  -4.5246 0.4757 0.0951
v  -3.8308 0.0000 0.6048
v  -4.2557 0.0000 0.1600
v  -5.3670 1.1848 1.3925
v  -5.3365 0.8524 1.6954
v  -4.0108 0.0000 1.6170
v  -4.5399 0.0000 1.8698
v  -4.8811 0.0000 0.0728
v  -5.4645 0.0000 0.7127
v  -5.5902 0.0000 1.3378
v  -5.1652 0.0112 1.7825
v  1.0297 0.8966 2.3031
v  1.8651 0.8966 1.8894
v  1.8651 1.0466 1.8894
v  1.0297 1.0466 2.3031
v  1.7671 1.0466 1.6916
v  0.9317 1.0466 2.1052
v  1.7671 0.8966 1.6916
v  0.9317 0.8966 2.1052
v  1.9610 0.8966 2.3047
v  2.1502 0.8966 2.1848
v  2.1502 1.1205 2.1848
v  1.9610 1.1205 2.3047
v  1.1502 1.1205 0.3286
v  1.3687 1.1205 0.2793
v  1.0292 1.1205 -1.2602
v  0.8107 1.1205 -1.2109
v  1.3687 0.8966 0.2793
v  1.0292 0.8966 -1.2602
v  0.8107 0.8966 -1.2109
v  1.1502 0.8966 0.3286
v  1.7580 1.1205 1.3446
v  1.7580 0.8966 1.3446
v  1.5689 1.1205 1.4646
v  1.5689 0.8966 1.4646
v  0.6616 0.8966 1.5498
v  1.5264 0.8966 1.2017
v  1.5264 1.0466 1.2017
v  0.6616 1.0466 1.5498
v  1.4440 1.0466 0.9968
v  0.5792 1.0466 1.3450
v  1.4440 0.8966 0.9968
v  0.5792 0.8966 1.3450
v  1.1206 0.8966 2.7582
v  1.3098 0.8966 2.6383
v  1.3098 1.1205 2.6383
v  1.1206 1.1205 2.7582
v  0.3098 1.1205 0.7821
v  0.5283 1.1205 0.7328
v  0.1502 1.1205 -0.9435
v  -0.0683 1.1205 -0.8942
v  0.5283 0.8966 0.7328
v  0.1502 0.8966 -0.9435
v  -0.0683 0.8966 -0.8942
v  0.3098 0.8966 0.7821
v  0.9176 1.1205 1.7981
v  0.9176 0.8966 1.7981
v  0.7285 1.1205 1.9181
v  0.7285 0.8966 1.9181
v  0.3919 0.8966 0.6516
v  1.2889 0.8966 0.3977
v  1.2889 1.0466 0.3977
v  0.3919 1.0466 0.6516
v  1.2288 1.0466 0.1852
v  0.3318 1.0466 0.4392
v  1.2288 0.8966 0.1852
v  0.3318 0.8966 0.4392
v  0.1639 0.8966 -0.3191
v  1.0662 0.8966 -0.5536
v  1.0662 1.0466 -0.5536
v  0.1639 1.0466 -0.3191
v  1.0107 1.0466 -0.7673
v  0.1084 1.0466 -0.5328
v  1.0107 0.8966 -0.7673
v  0.1084 0.8966 -0.5328
v  0.3322 3.6669 0.5680
v  1.6631 2.9496 0.0337
v  1.6864 0.9064 0.0623
v  1.7964 0.9064 0.7558
v  1.7832 2.9496 0.7901
v  2.5083 0.9064 0.6428
v  2.5319 3.0044 0.6712
v  2.3982 0.9064 -0.0506
v  2.4120 3.0044 -0.0850
v  2.2338 3.7758 0.7174
v  1.6283 3.3200 0.8131
v  2.1142 3.7758 -0.0366
v  1.5088 3.3200 0.0598
v  1.6869 4.2922 0.8009
v  1.3367 3.6422 0.8560
v  1.5683 4.2922 0.0532
v  1.2183 3.6421 0.1092
v  1.4128 4.4260 0.8334
v  1.3162 4.4259 0.1649
v  1.4760 4.6282 0.9428
v  1.3228 3.5022 0.9413
v  1.3471 4.6282 0.0707
v  1.1947 3.5022 0.0975
v  0.5226 3.5022 1.0683
v  0.3948 3.5022 0.2244
v  -0.6854 0.9064 1.1496
v  0.0265 0.9064 1.0366
v  0.0497 2.9496 1.0652
v  -0.6991 3.0044 1.1839
v  -0.8191 3.0044 0.4277
v  -0.7954 0.9064 0.4561
v  -0.0836 0.9064 0.3432
v  -0.0703 2.9496 0.3088
v  0.2041 3.3200 1.0391
v  -0.4014 3.7758 1.1356
v  -0.5210 3.7758 0.3815
v  0.0846 3.3200 0.2858
v  0.4947 3.6422 0.9896
v  0.1446 4.2922 1.0456
v  0.0259 4.2922 0.2980
v  0.3761 3.6421 0.2429
v  0.3964 4.4260 0.9947
v  0.3001 4.4259 0.3262
v  0.3701 4.6282 1.1183
v  0.2416 4.6282 0.2461
# 373 vertices

vn 0.1449 -0.0208 0.9892
vn 0.0005 1.0000 0.0030
vn 0.9990 0.0000 -0.0458
vn 0.0000 1.0000 -0.0000
vn 0.1494 0.0000 0.9888
vn 0.9999 0.0000 -0.0126
vn 0.8159 0.0000 0.5782
vn 0.7936 0.0000 0.6085
vn 0.0088 1.0000 -0.0001
vn 0.3889 -0.3271 0.8613
vn -0.3889 -0.3271 -0.8613
vn 0.8874 -0.2280 -0.4007
vn -0.8874 -0.2280 0.4007
vn -0.2342 0.8223 -0.5187
vn -0.4640 0.8607 0.2095
vn 0.2342 0.8223 0.5187
vn 0.4640 0.8607 -0.2095
vn -0.3575 -0.5000 -0.7888
vn -0.3554 0.5000 -0.7898
vn 0.0021 1.0000 -0.0009
vn 0.3575 0.5000 0.7888
vn 0.3554 -0.5000 0.7898
vn -0.0021 -1.0000 0.0009
vn -0.9114 0.0023 0.4115
vn 0.9114 -0.0023 -0.4115
vn 0.1396 -0.0416 0.9893
vn -0.1396 0.0412 -0.9894
vn -0.9897 -0.0447 0.1363
vn -0.0002 -0.0964 0.9953
vn 0.0002 0.0958 -0.9954
vn 0.9969 -0.0781 -0.0013
vn -0.4352 -0.2084 -0.8759
vn -0.2484 0.2082 -0.9460
vn 0.0455 0.0074 -0.9989
vn -0.0940 -0.4447 -0.8907
vn 0.4421 -0.3294 -0.8343
vn 0.4379 -0.5833 -0.6841
vn 0.0840 0.8319 -0.5485
vn 0.1729 0.4970 -0.8504
vn 0.2075 0.8086 -0.5505
vn 0.8078 0.1999 -0.5545
vn 0.6811 0.0103 -0.7322
vn 0.8478 -0.3908 -0.3585
vn 0.1795 0.9643 0.1947
vn 0.2900 -0.0249 0.9567
vn 0.7326 -0.2482 0.6338
vn 0.8488 -0.2461 0.4680
vn 0.8661 0.0709 0.4947
vn 0.3387 0.0838 0.9371
vn 0.9645 0.0236 0.2628
vn -0.0043 0.6392 0.7690
vn 0.5826 0.5034 0.6380
vn 0.8455 0.5171 0.1332
vn 0.6112 0.5008 -0.6129
vn 0.0000 0.6380 -0.7701
vn -0.6849 0.4577 -0.5670
vn -0.7614 0.6483 -0.0002
vn -0.5504 0.4552 0.6999
vn 0.8100 -0.1130 -0.5755
vn 0.0071 -0.0124 -0.9999
vn 0.5734 -0.3426 -0.7442
vn 0.1430 -0.3348 -0.9314
vn -0.6697 -0.3188 -0.6708
vn -0.7028 0.0039 -0.7113
vn 0.9383 -0.0067 -0.3457
vn 0.9172 -0.2754 -0.2878
vn 0.9608 0.2741 -0.0408
vn 0.9567 0.0032 0.2911
vn 0.0135 -0.1379 0.9903
vn -0.3182 0.1540 0.9354
vn -0.5442 0.3432 0.7655
vn -0.3156 -0.0032 0.9489
vn -0.3038 -0.2885 0.9080
vn -0.3148 -0.1020 0.9436
vn 0.1728 -0.6225 0.7633
vn -0.9617 -0.0569 0.2683
vn 0.9287 0.2400 0.2826
vn -0.9498 0.3129 -0.0003
vn -0.8720 0.2989 -0.3876
vn -0.9347 0.0125 -0.3552
vn -0.9054 -0.2909 -0.3093
vn -0.3174 0.3166 0.8939
vn 0.3816 -0.3548 -0.8535
vn 0.9265 -0.2590 -0.2729
vn 0.9100 -0.2772 -0.3082
vn -0.9527 0.0192 0.3034
vn 0.3182 -0.1161 0.9409
vn 0.9268 -0.1080 0.3596
vn -0.3047 -0.2887 0.9076
vn -0.4100 0.5640 -0.7168
vn -0.6057 0.4911 -0.6261
vn -0.7644 0.6429 -0.0488
vn -0.1346 0.9903 0.0356
vn -0.5627 0.4718 0.6788
vn 0.0576 0.6859 0.7254
vn -0.1796 -0.2655 -0.9472
vn -0.6226 -0.3100 -0.7185
vn -0.6868 0.0243 -0.7265
vn -0.2859 0.0439 -0.9573
vn -1.0000 0.0008 -0.0011
vn -0.9509 -0.2897 0.1086
vn 0.5233 0.6064 0.5986
vn 0.5012 0.2417 0.8309
vn 0.0503 0.2641 0.9632
vn -0.3960 0.2828 0.8736
vn -0.3789 0.3367 0.8620
vn -0.9387 0.0017 0.3447
vn -0.8920 0.2753 0.3585
vn -0.9093 -0.2771 0.3106
vn -0.9055 -0.2820 0.3169
vn 0.6985 -0.0031 0.7156
vn 0.6239 0.4669 0.6268
vn -0.0589 0.5064 0.8603
vn 0.1169 -0.0155 0.9930
vn -0.6224 0.0394 0.7817
vn -0.7033 0.2055 0.6805
vn -0.8757 -0.1488 0.4594
vn 0.6683 0.7306 0.1401
vn 0.3375 0.9389 0.0678
vn -0.1180 0.9712 0.2070
vn 0.6520 0.7152 -0.2517
vn -0.1233 0.9717 -0.2017
vn -0.7369 0.5703 -0.3629
vn -0.8420 0.5298 0.1014
vn 0.8810 0.4245 0.2087
vn -0.9143 -0.4012 -0.0554
vn -0.8546 -0.4094 0.3195
vn -0.9944 -0.0724 -0.0770
vn -0.9117 0.2103 -0.3530
vn -0.9273 -0.0714 -0.3675
vn -0.8422 -0.3353 -0.4223
vn 0.3562 -0.3116 0.8809
vn 0.7091 -0.2779 0.6480
vn 0.9265 0.0721 0.3693
vn 0.9345 -0.1942 0.2985
vn -0.0761 0.5400 0.8382
vn 0.1047 0.3532 0.9297
vn -0.3217 0.6780 0.6609
vn -0.5531 0.3538 0.7543
vn -0.3030 0.6956 0.6514
vn -0.5962 0.7234 0.3482
vn 0.7577 0.3842 0.5276
vn 0.2284 0.9675 0.1087
vn 0.9670 0.2452 -0.0687
vn 0.6090 0.5697 -0.5520
vn -0.1486 0.6635 -0.7333
vn -0.2869 0.8994 -0.3297
vn 0.9446 -0.2995 -0.1341
vn 0.5441 -0.1295 -0.8289
vn 0.7877 -0.5974 -0.1503
vn 0.5191 -0.3848 -0.7632
vn 0.2796 -0.2601 -0.9242
vn 0.0101 -0.1769 -0.9842
vn -0.0939 0.1770 -0.9797
vn 0.7062 -0.4204 0.5697
vn 0.7448 -0.3237 0.5835
vn 0.3603 -0.0300 0.9323
vn 0.6794 -0.2713 0.6817
vn -0.4363 0.6156 -0.6563
vn -0.5993 -0.0113 -0.8004
vn -0.5628 0.1871 -0.8052
vn -0.6877 -0.0177 -0.7258
vn -0.0364 0.6168 0.7863
vn -0.1709 0.5869 0.7914
vn 0.4517 0.1355 0.8819
vn 0.1389 0.6142 0.7769
vn -0.4913 0.7722 0.4030
vn -0.7441 0.6609 0.0971
vn -0.5910 0.8065 0.0176
vn -0.6151 0.7374 -0.2791
vn -0.0561 0.9448 -0.3228
vn -0.2939 0.7688 -0.5679
vn 0.6286 0.6636 0.4055
vn 0.5129 0.3047 0.8025
vn 0.8380 0.0000 0.5457
vn -0.3120 -0.1965 0.9295
vn -0.4913 -0.6223 0.6094
vn 0.0651 -0.5159 0.8542
vn 0.2292 0.3189 0.9197
vn -0.3125 0.6011 0.7356
vn 0.2986 0.9184 0.2594
vn 0.3547 0.8824 -0.3090
vn 0.2904 0.8062 -0.5155
vn -0.9941 0.0165 0.1069
vn -0.9032 -0.1710 0.3938
vn -0.8954 0.0380 0.4437
vn -0.9881 -0.0246 0.1516
vn -0.9238 0.2341 0.3029
vn -0.8185 0.0434 0.5728
vn -0.9118 0.0349 0.4091
vn -0.9127 0.0436 0.4063
vn -0.5935 0.4059 0.6950
vn -0.6954 0.5131 0.5031
vn -0.7987 0.5989 0.0589
vn -0.9818 0.1631 -0.0969
vn -0.9888 -0.0168 -0.1485
vn -0.0736 0.8689 0.4894
vn -0.1025 0.9241 0.3681
vn -0.2136 0.7388 0.6392
vn 0.5077 0.8507 0.1363
vn 0.3565 0.9168 0.1799
vn -0.3900 0.9189 0.0601
vn 0.8275 0.5571 -0.0696
vn -0.8658 0.0018 -0.5004
vn -0.8588 0.2848 -0.4258
vn -0.1694 -0.5640 0.8082
vn -0.0968 -0.2895 0.9523
vn -0.2709 -0.5580 0.7844
vn -0.2125 0.1286 0.9687
vn -0.7219 -0.1501 0.6756
vn -0.8469 -0.1159 0.5190
vn -0.3093 0.6763 0.6686
vn -0.8680 0.4482 0.2136
vn -0.0369 0.9628 0.2678
vn -0.5774 0.7818 -0.2352
vn -0.9180 0.3072 0.2508
vn 0.4562 0.8896 0.0232
vn 0.0943 0.8209 -0.5633
vn 0.7241 0.6854 -0.0775
vn 0.4933 0.7190 -0.4896
vn 0.5343 0.7067 0.4638
vn 0.2401 0.6891 0.6837
vn 0.1482 0.2463 0.9578
vn -0.8932 0.4481 0.0382
vn -0.7233 0.5398 -0.4307
vn -0.8633 0.1277 0.4883
vn 0.8492 0.4256 -0.3126
vn 0.4516 0.8263 -0.3365
vn 0.3885 0.9112 0.1375
vn 0.7340 0.4800 0.4805
vn 0.0113 0.8797 0.4754
vn 0.1441 0.4149 0.8984
vn -0.2845 0.9288 -0.2375
vn -0.4383 0.4162 -0.7966
vn -0.7690 0.3862 -0.5094
vn -0.8544 0.5164 0.0571
vn -0.4302 0.0048 -0.9027
vn -0.8821 -0.1317 -0.4523
vn -0.9676 -0.0130 0.2520
vn 0.0462 0.6489 -0.7595
vn 0.3213 0.2629 -0.9098
vn 0.9228 0.2527 -0.2908
vn 0.3711 0.1599 -0.9147
vn -0.4925 0.7301 0.4737
vn -0.4921 0.2397 0.8369
vn 0.7674 0.2220 0.6015
vn 0.1356 0.1410 0.9807
vn -0.3956 -0.1090 -0.9119
vn -0.8642 -0.2776 -0.4196
vn -0.9257 -0.2161 0.3103
vn -0.4422 -0.0074 0.8969
vn -0.0030 1.0000 -0.0012
vn 0.0279 0.9996 0.0054
vn -0.0211 0.9998 -0.0027
vn -0.0079 1.0000 -0.0044
vn -0.0047 0.9995 0.0304
vn 0.0117 0.9999 0.0098
vn -0.0018 1.0000 0.0011
vn 0.4437 0.0000 0.8962
vn -0.4437 0.0000 -0.8962
vn 0.5355 0.0000 0.8445
vn 0.9765 0.0000 -0.2154
vn -0.9765 0.0000 0.2154
vn 0.9392 0.0000 -0.3432
vn -0.9383 0.0000 0.3458
vn 0.9061 0.0000 -0.4230
vn -0.9061 0.0000 0.4230
vn 0.3734 0.0000 0.9277
vn -0.3734 0.0000 -0.9277
vn 0.9755 0.0000 -0.2201
vn -0.9755 0.0000 0.2201
vn 0.2724 0.0000 0.9622
vn -0.2724 0.0000 -0.9622
vn 0.2515 0.0000 0.9679
vn -0.2515 0.0000 -0.9679
vn 0.0312 -0.5130 0.8578
vn 0.7881 0.0000 0.6155
vn -0.9671 -0.2031 0.1534
vn -0.9876 -0.0090 0.1567
vn 0.1573 -0.0154 0.9874
vn 0.1566 -0.0067 0.9876
vn 0.9876 -0.0090 -0.1567
vn 0.9714 0.1809 -0.1541
vn 0.1540 0.0026 0.9881
vn 0.8172 0.5616 -0.1297
vn -0.8313 -0.5400 0.1319
vn 0.1389 0.0098 0.9903
vn 0.5618 0.8226 -0.0877
vn -0.7287 -0.6750 0.1156
vn 0.1256 0.0164 0.9920
vn 0.4377 0.8966 -0.0666
vn 0.9708 -0.1189 -0.2083
vn 0.9654 -0.2192 -0.1413
vn 0.9738 -0.1699 -0.1509
vn 0.0000 -1.0000 -0.0001
vn 0.1560 -0.0154 0.9876
vn 0.1568 -0.0067 0.9876
vn -0.9714 0.1809 0.1541
vn 0.9671 -0.2031 -0.1534
vn 0.1594 0.0026 0.9872
vn -0.8172 0.5616 0.1297
vn 0.8313 -0.5400 -0.1319
vn 0.1754 0.0103 0.9845
vn -0.5674 0.8187 0.0884
vn 0.7287 -0.6750 -0.1157
vn 0.1895 0.0174 0.9817
vn -0.4499 0.8904 0.0682
vn -0.9902 -0.1314 0.0481
vn -0.9658 -0.2177 0.1409
vn -0.9797 -0.1307 0.1517
vn 0.1567 -0.0226 0.9874
vn 0.0000 1.0000 -0.0001
# 312 vertex normals

vt 0.2868 0.8327 0.0000
vt 0.4368 0.6854 0.0000
vt 0.4532 0.6999 0.0000
vt 0.3053 0.8438 0.0000
vt 0.3398 0.8649 0.0000
vt 0.4628 0.7484 0.0000
vt 0.4932 0.7481 0.0000
vt 0.5458 0.8562 0.0000
vt 0.3338 0.9016 0.0000
vt 0.4942 0.7009 0.0000
vt 0.5088 0.6849 0.0000
vt 0.6297 0.7854 0.0000
vt 0.6160 0.8023 0.0000
vt 0.4559 0.7292 0.0000
vt 0.3341 0.8464 0.0000
vt 0.4945 0.7285 0.0000
vt 0.5881 0.7996 0.0000
vt 0.5871 0.8189 0.0000
vt 0.4564 0.6788 0.0000
vt 0.4925 0.6799 0.0000
vt 0.0184 0.9122 0.0000
vt 0.0184 0.8575 0.0000
vt 0.0765 0.8439 0.0000
vt 0.0765 0.9258 0.0000
vt 0.0946 0.9055 0.0000
vt 0.0946 0.8642 0.0000
vt 0.1794 0.8642 0.0000
vt 0.1794 0.9055 0.0000
vt 0.1975 0.9258 0.0000
vt 0.1975 0.8439 0.0000
vt 0.2556 0.8575 0.0000
vt 0.2556 0.9122 0.0000
vt 0.0965 0.7859 0.0000
vt 0.1774 0.7859 0.0000
vt 0.1774 0.9838 0.0000
vt 0.0965 0.9838 0.0000
vt 0.0860 0.8541 0.0000
vt 0.0860 0.9156 0.0000
vt 0.1880 0.8541 0.0000
vt 0.1880 0.9156 0.0000
vt 0.6697 0.6164 0.0000
vt 0.6307 0.6164 0.0000
vt 0.6307 0.5836 0.0000
vt 0.6697 0.5836 0.0000
vt 0.5969 0.6164 0.0000
vt 0.5969 0.5836 0.0000
vt 0.5631 0.6164 0.0000
vt 0.5631 0.5836 0.0000
vt 0.5240 0.6164 0.0000
vt 0.5240 0.5836 0.0000
vt 0.4902 0.6165 0.0000
vt 0.4902 0.5836 0.0000
vt 0.4564 0.6164 0.0000
vt 0.4564 0.5836 0.0000
vt 0.7304 0.4054 0.0000
vt 0.6915 0.4280 0.0000
vt 0.6519 0.4054 0.0000
vt 0.7304 0.3600 0.0000
vt 0.6915 0.3374 0.0000
vt 0.6519 0.3600 0.0000
vt 0.6912 0.4280 0.0000
vt 0.6912 0.3374 0.0000
vt 0.3280 0.2872 0.0000
vt 0.3591 0.2872 0.0000
vt 0.3591 0.4793 0.0000
vt 0.3280 0.4793 0.0000
vt 0.3019 0.4793 0.0000
vt 0.2691 0.4793 0.0000
vt 0.2691 0.2872 0.0000
vt 0.3019 0.2872 0.0000
vt 0.4083 0.0096 0.0000
vt 0.3892 0.0409 0.0000
vt 0.3793 0.0265 0.0000
vt 0.3868 0.0096 0.0000
vt 0.3637 0.0201 0.0000
vt 0.3651 0.0096 0.0000
vt 0.3702 0.0613 0.0000
vt 0.3590 0.0413 0.0000
vt 0.3404 0.0496 0.0000
vt 0.3318 0.0285 0.0000
vt 0.3502 0.0274 0.0000
vt 0.3527 0.0096 0.0000
vt 0.3475 0.0644 0.0000
vt 0.1865 0.1320 0.0000
vt 0.2076 0.0552 0.0000
vt 0.2311 0.0883 0.0000
vt 0.2203 0.1316 0.0000
vt 0.2019 0.1827 0.0000
vt 0.0750 0.4166 0.0000
vt 0.0519 0.4633 0.0000
vt 0.0413 0.4822 0.0000
vt 0.0126 0.4319 0.0000
vt 0.4964 0.4621 0.0000
vt 0.4139 0.4336 0.0000
vt 0.3847 0.3514 0.0000
vt 0.4959 0.3509 0.0000
vt 0.4064 0.2523 0.0000
vt 0.4951 0.2562 0.0000
vt 0.5852 0.2518 0.0000
vt 0.6071 0.3504 0.0000
vt 0.5786 0.4329 0.0000
vt 0.3990 0.1294 0.0000
vt 0.4949 0.1292 0.0000
vt 0.4949 0.0096 0.0000
vt 0.5908 0.0096 0.0000
vt 0.5917 0.1293 0.0000
vt 0.3410 0.1303 0.0000
vt 0.3573 0.0990 0.0000
vt 0.3047 0.2741 0.0000
vt 0.3035 0.1666 0.0000
vt 0.2040 0.2371 0.0000
vt 0.2452 0.1313 0.0000
vt 0.1212 0.2701 0.0000
vt 0.1195 0.1935 0.0000
vt 0.0345 0.2432 0.0000
vt 0.0629 0.1833 0.0000
vt 0.0119 0.1966 0.0000
vt 0.0242 0.1284 0.0000
vt 0.0416 0.0842 0.0000
vt 0.0565 0.1277 0.0000
vt 0.1623 0.4162 0.0000
vt 0.1864 0.4633 0.0000
vt 0.2344 0.4354 0.0000
vt 0.2078 0.4802 0.0000
vt 0.2653 0.1557 0.0000
vt 0.7823 0.2157 0.0000
vt 0.7725 0.2542 0.0000
vt 0.6907 0.2805 0.0000
vt 0.6902 0.2467 0.0000
vt 0.6366 0.2050 0.0000
vt 0.6088 0.1290 0.0000
vt 0.6355 0.0096 0.0000
vt 0.0077 0.1552 0.0000
vt 0.1623 0.3390 0.0000
vt 0.2344 0.3390 0.0000
vt 0.0750 0.3390 0.0000
vt 0.0126 0.3390 0.0000
vt 0.0386 0.0508 0.0000
vt 0.0504 0.0502 0.0000
vt 0.0966 0.7574 0.0000
vt 0.1070 0.6692 0.0000
vt 0.1752 0.6764 0.0000
vt 0.1627 0.7503 0.0000
vt 0.2364 0.6704 0.0000
vt 0.2680 0.7326 0.0000
vt 0.0085 0.4895 0.0000
vt 0.1049 0.4914 0.0000
vt 0.1040 0.5831 0.0000
vt 0.0345 0.6096 0.0000
vt 0.0194 0.6858 0.0000
vt 0.1752 0.5830 0.0000
vt 0.1752 0.4915 0.0000
vt 0.2568 0.7659 0.0000
vt 0.3005 0.7142 0.0000
vt 0.2947 0.7459 0.0000
vt 0.2852 0.6940 0.0000
vt 0.2622 0.6749 0.0000
vt 0.2455 0.6283 0.0000
vt 0.2486 0.5830 0.0000
vt 0.2267 0.5557 0.0000
vt 0.2359 0.4915 0.0000
vt 0.4041 0.6245 0.0000
vt 0.3530 0.6687 0.0000
vt 0.3158 0.6385 0.0000
vt 0.3690 0.5828 0.0000
vt 0.3338 0.5636 0.0000
vt 0.3011 0.6003 0.0000
vt 0.3073 0.5286 0.0000
vt 0.3071 0.7068 0.0000
vt 0.2725 0.6616 0.0000
vt 0.2670 0.6214 0.0000
vt 0.3644 0.7117 0.0000
vt 0.3844 0.6918 0.0000
vt 0.2454 0.4915 0.0000
vt 0.2881 0.4915 0.0000
vt 0.2544 0.5502 0.0000
vt 0.3763 0.5826 0.0000
vt 0.4205 0.6108 0.0000
vt 0.3730 0.7194 0.0000
vt 0.4231 0.6697 0.0000
vt 0.4561 0.6571 0.0000
vt 0.6850 0.0599 0.0000
vt 0.7218 0.1133 0.0000
vt 0.6780 0.1255 0.0000
vt 0.6575 0.1025 0.0000
vt 0.6575 0.0570 0.0000
vt 0.6575 0.1315 0.0000
vt 0.7654 0.1353 0.0000
vt 0.7159 0.1663 0.0000
vt 0.7631 0.1857 0.0000
vt 0.7396 0.2205 0.0000
vt 0.6884 0.2306 0.0000
vt 0.6598 0.1758 0.0000
vt 0.8357 0.1487 0.0000
vt 0.7996 0.1297 0.0000
vt 0.8145 0.0581 0.0000
vt 0.8611 0.0749 0.0000
vt 0.8233 0.0096 0.0000
vt 0.8817 0.0096 0.0000
vt 0.9244 0.0096 0.0000
vt 0.9174 0.0431 0.0000
vt 0.9111 0.0914 0.0000
vt 0.8921 0.1441 0.0000
vt 0.7655 0.0096 0.0000
vt 0.7686 0.0539 0.0000
vt 0.7227 0.0525 0.0000
vt 0.7200 0.0252 0.0000
vt 0.9276 0.1651 0.0000
vt 0.9309 0.1292 0.0000
vt 0.9340 0.0609 0.0000
vt 0.9428 0.1011 0.0000
vt 0.9551 0.0756 0.0000
vt 0.5715 0.8483 0.0000
vt 0.5863 0.8382 0.0000
vt 0.5544 0.8772 0.0000
vt 0.5905 0.8692 0.0000
vt 0.5972 0.8447 0.0000
vt 0.6025 0.8199 0.0000
vt 0.4281 0.5322 0.0000
vt 0.4399 0.5363 0.0000
vt 0.4312 0.5396 0.0000
vt 0.4431 0.5460 0.0000
vt 0.4284 0.5558 0.0000
vt 0.5166 0.5411 0.0000
vt 0.5138 0.5317 0.0000
vt 0.5267 0.4915 0.0000
vt 0.4755 0.5057 0.0000
vt 0.4608 0.4915 0.0000
vt 0.4966 0.4915 0.0000
vt 0.4983 0.5248 0.0000
vt 0.4614 0.5281 0.0000
vt 0.4742 0.5380 0.0000
vt 0.4644 0.5631 0.0000
vt 0.4470 0.5687 0.0000
vt 0.4334 0.4915 0.0000
vt 0.4428 0.4915 0.0000
vt 0.4428 0.5192 0.0000
vt 0.4367 0.5114 0.0000
vt 0.4308 0.5245 0.0000
vt 0.3775 0.4915 0.0000
vt 0.3481 0.5134 0.0000
vt 0.3500 0.4915 0.0000
vt 0.3796 0.5207 0.0000
vt 0.3506 0.5365 0.0000
vt 0.3331 0.5448 0.0000
vt 0.3247 0.5209 0.0000
vt 0.3212 0.4915 0.0000
vt 0.3765 0.5375 0.0000
vt 0.3590 0.5561 0.0000
vt 0.3787 0.5308 0.0000
vt 0.3914 0.5595 0.0000
vt 0.3964 0.5673 0.0000
vt 0.4171 0.4915 0.0000
vt 0.4194 0.5200 0.0000
vt 0.4017 0.5081 0.0000
vt 0.3921 0.4915 0.0000
vt 0.4115 0.5283 0.0000
vt 0.3907 0.5251 0.0000
vt 0.4058 0.5385 0.0000
vt 0.3842 0.5399 0.0000
vt 0.4216 0.5468 0.0000
vt 0.7672 0.5280 0.0000
vt 0.7477 0.5558 0.0000
vt 0.7240 0.5435 0.0000
vt 0.7267 0.5179 0.0000
vt 0.7015 0.5453 0.0000
vt 0.6978 0.5317 0.0000
vt 0.7120 0.5736 0.0000
vt 0.7400 0.5889 0.0000
vt 0.7110 0.5911 0.0000
vt 0.6919 0.5805 0.0000
vt 0.6242 0.5415 0.0000
vt 0.6034 0.5337 0.0000
vt 0.6013 0.5126 0.0000
vt 0.6272 0.5143 0.0000
vt 0.6534 0.5203 0.0000
vt 0.6455 0.5446 0.0000
vt 0.5840 0.5442 0.0000
vt 0.5757 0.5181 0.0000
vt 0.5720 0.5489 0.0000
vt 0.5479 0.5149 0.0000
vt 0.5446 0.4918 0.0000
vt 0.5644 0.4918 0.0000
vt 0.6924 0.5616 0.0000
vt 0.6774 0.5442 0.0000
vt 0.6578 0.5529 0.0000
vt 0.7516 0.5750 0.0000
vt 0.7300 0.4918 0.0000
vt 0.7766 0.4918 0.0000
vt 0.7053 0.4918 0.0000
vt 0.5948 0.4918 0.0000
vt 0.6259 0.4918 0.0000
vt 0.6552 0.4918 0.0000
vt 0.6761 0.4918 0.0000
vt 0.4588 0.9773 0.0000
vt 0.3240 0.9373 0.0000
vt 0.3380 0.9194 0.0000
vt 0.4544 0.9889 0.0000
vt 0.4017 0.9696 0.0000
vt 0.3292 0.9671 0.0000
vt 0.3543 0.9946 0.0000
vt 0.5916 0.9404 0.0000
vt 0.5141 0.9894 0.0000
vt 0.0829 0.1526 0.0000
vt 0.0829 0.0179 0.0000
vt 0.1071 0.0140 0.0000
vt 0.1071 0.1565 0.0000
vt 0.1427 0.0140 0.0000
vt 0.1427 0.1565 0.0000
vt 0.1669 0.0179 0.0000
vt 0.1669 0.1526 0.0000
vt 0.5244 0.6672 0.0000
vt 0.5244 0.6515 0.0000
vt 0.5427 0.6515 0.0000
vt 0.5427 0.6672 0.0000
vt 0.6864 0.6672 0.0000
vt 0.6864 0.6515 0.0000
vt 0.7840 0.6515 0.0000
vt 0.7840 0.6672 0.0000
vt 0.6864 0.6341 0.0000
vt 0.7840 0.6341 0.0000
vt 0.7840 0.6828 0.0000
vt 0.6864 0.6828 0.0000
vt 0.6050 0.6515 0.0000
vt 0.6050 0.6341 0.0000
vt 0.6050 0.6672 0.0000
vt 0.6050 0.6828 0.0000
vt 0.5427 0.6341 0.0000
vt 0.5427 0.6828 0.0000
vt 0.1191 0.1757 0.0000
vt 0.7184 0.0096 0.0000
vt 0.8006 0.8494 0.0000
vt 0.8006 0.6601 0.0000
vt 0.8657 0.6601 0.0000
vt 0.8657 0.8494 0.0000
vt 0.9299 0.6601 0.0000
vt 0.9299 0.8494 0.0000
vt 0.9956 0.6601 0.0000
vt 0.9956 0.8494 0.0000
vt 0.9299 0.9199 0.0000
vt 0.8657 0.9199 0.0000
vt 0.9956 0.9199 0.0000
vt 0.8006 0.9199 0.0000
vt 0.9299 0.9690 0.0000
vt 0.8657 0.9690 0.0000
vt 0.9956 0.9690 0.0000
vt 0.8006 0.9690 0.0000
vt 0.9299 0.9911 0.0000
vt 0.9956 0.9911 0.0000
vt 0.7739 0.8124 0.0000
vt 0.7739 0.8832 0.0000
vt 0.7641 0.9015 0.0000
vt 0.7641 0.7997 0.0000
vt 0.7823 0.9117 0.0000
vt 0.7823 0.9720 0.0000
vt 0.7641 0.9807 0.0000
vt 0.7767 0.7243 0.0000
vt 0.7767 0.7917 0.0000
vt 0.7641 0.7230 0.0000
vt 0.6625 0.7997 0.0000
vt 0.6625 0.7230 0.0000
vt 0.8671 0.2990 0.0000
vt 0.9313 0.2990 0.0000
vt 0.9313 0.4883 0.0000
vt 0.8671 0.4883 0.0000
vt 0.8015 0.4883 0.0000
vt 0.8015 0.2990 0.0000
vt 0.9965 0.2990 0.0000
vt 0.9965 0.4883 0.0000
vt 0.9313 0.5587 0.0000
vt 0.8671 0.5587 0.0000
vt 0.8015 0.5587 0.0000
vt 0.9965 0.5587 0.0000
vt 0.9313 0.6079 0.0000
vt 0.8671 0.6079 0.0000
vt 0.8015 0.6079 0.0000
vt 0.9965 0.6079 0.0000
vt 0.8671 0.6300 0.0000
vt 0.8015 0.6300 0.0000
vt 0.6522 0.8121 0.0000
vt 0.6625 0.9016 0.0000
vt 0.6522 0.8827 0.0000
vt 0.6443 0.9130 0.0000
vt 0.6625 0.9807 0.0000
vt 0.6443 0.9733 0.0000
vt 0.6499 0.7249 0.0000
vt 0.6499 0.7923 0.0000
# 387 texture coords

g mine
usemtl Mine
s off
f 1/1/1 2/2/1 3/3/1 
f 3/3/1 4/4/1 1/1/1 
f 5/5/2 6/6/2 7/7/2 
f 5/5/2 7/7/2 8/8/2 
f 5/5/2 8/8/2 9/9/2 
f 10/10/3 11/11/3 12/12/3 
f 12/12/3 13/13/3 10/10/3 
f 4/4/4 3/3/4 14/14/4 
f 14/14/4 15/15/4 4/4/4 
f 16/16/4 10/10/4 13/13/4 
f 13/13/4 17/17/4 16/16/4 
f 15/15/5 14/14/5 6/6/5 
f 6/6/5 5/5/5 15/15/5 
f 7/7/6 16/16/6 17/17/6 
f 17/17/6 18/18/6 7/7/6 
f 2/19/7 11/20/7 10/10/7 
f 10/10/7 3/3/7 2/19/7 
f 3/3/4 10/10/4 16/16/4 
f 16/16/4 14/14/4 3/3/4 
f 14/14/8 16/16/8 7/7/8 
f 7/7/8 6/6/8 14/14/8 
f 8/8/9 7/7/9 18/18/9 
f 19/21/10 20/22/10 21/23/10 
f 21/23/10 22/24/10 19/21/10 
f 23/25/4 24/26/4 25/27/4 
f 25/27/4 26/28/4 23/25/4 
f 27/29/11 28/30/11 29/31/11 
f 29/31/11 30/32/11 27/29/11 
f 20/33/12 29/34/12 28/30/12 
f 28/30/12 21/23/12 20/33/12 
f 30/35/13 19/36/13 22/24/13 
f 22/24/13 27/29/13 30/35/13 
f 22/24/4 21/23/4 31/37/4 
f 31/37/4 32/38/4 22/24/4 
f 21/23/4 28/30/4 33/39/4 
f 33/39/4 31/37/4 21/23/4 
f 28/30/4 27/29/4 34/40/4 
f 34/40/4 33/39/4 28/30/4 
f 27/29/4 22/24/4 32/38/4 
f 32/38/4 34/40/4 27/29/4 
f 32/38/14 31/37/14 24/26/14 
f 24/26/14 23/25/14 32/38/14 
f 31/37/15 33/39/15 25/27/15 
f 25/27/15 24/26/15 31/37/15 
f 33/39/16 34/40/16 26/28/16 
f 26/28/16 25/27/16 33/39/16 
f 34/40/17 32/38/17 23/25/17 
f 23/25/17 26/28/17 34/40/17 
f 35/41/18 36/42/19 37/43/19 
f 37/43/19 38/44/18 35/41/18 
f 36/42/19 39/45/20 40/46/20 
f 40/46/20 37/43/19 36/42/19 
f 39/45/20 41/47/21 42/48/21 
f 42/48/21 40/46/20 39/45/20 
f 41/47/21 43/49/22 44/50/22 
f 44/50/22 42/48/21 41/47/21 
f 43/49/22 45/51/23 46/52/23 
f 46/52/23 44/50/22 43/49/22 
f 45/51/23 35/53/18 38/54/18 
f 38/54/18 46/52/23 45/51/23 
f 41/55/24 39/56/24 36/57/24 
f 36/57/24 43/58/24 41/55/24 
f 45/59/24 43/58/24 36/57/24 
f 36/57/24 35/60/24 45/59/24 
f 37/55/25 40/61/25 42/57/25 
f 42/57/25 44/60/25 37/55/25 
f 37/55/25 44/60/25 46/62/25 
f 46/62/25 38/58/25 37/55/25 
f 47/41/18 48/42/19 49/43/19 
f 49/43/19 50/44/18 47/41/18 
f 48/42/19 51/45/20 52/46/20 
f 52/46/20 49/43/19 48/42/19 
f 51/45/20 53/47/21 54/48/21 
f 54/48/21 52/46/20 51/45/20 
f 53/47/21 55/49/22 56/50/22 
f 56/50/22 54/48/21 53/47/21 
f 55/49/22 57/51/23 58/52/23 
f 58/52/23 56/50/22 55/49/22 
f 57/51/23 47/53/18 50/54/18 
f 50/54/18 58/52/23 57/51/23 
f 53/55/24 51/56/24 48/57/24 
f 48/57/24 55/58/24 53/55/24 
f 57/59/24 55/58/24 48/57/24 
f 48/57/24 47/60/24 57/59/24 
f 49/55/25 52/61/25 54/57/25 
f 54/57/25 56/60/25 49/55/25 
f 49/55/25 56/60/25 58/62/25 
f 58/62/25 50/58/25 49/55/25 
f 59/41/18 60/42/19 61/43/19 
f 61/43/19 62/44/18 59/41/18 
f 60/42/19 63/45/20 64/46/20 
f 64/46/20 61/43/19 60/42/19 
f 63/45/20 65/47/21 66/48/21 
f 66/48/21 64/46/20 63/45/20 
f 65/47/21 67/49/22 68/50/22 
f 68/50/22 66/48/21 65/47/21 
f 67/49/22 69/51/23 70/52/23 
f 70/52/23 68/50/22 67/49/22 
f 69/51/23 59/53/18 62/54/18 
f 62/54/18 70/52/23 69/51/23 
f 63/56/24 60/57/24 59/60/24 
f 59/60/24 65/55/24 63/56/24 
f 69/59/24 67/58/24 65/55/24 
f 65/55/24 59/60/24 69/59/24 
f 61/55/25 64/61/25 66/57/25 
f 66/57/25 68/60/25 61/55/25 
f 61/55/25 68/60/25 70/62/25 
f 70/62/25 62/58/25 61/55/25 
f 71/41/18 72/42/19 73/43/19 
f 73/43/19 74/44/18 71/41/18 
f 72/42/19 75/45/20 76/46/20 
f 76/46/20 73/43/19 72/42/19 
f 75/45/20 77/47/21 78/48/21 
f 78/48/21 76/46/20 75/45/20 
f 77/47/21 79/49/22 80/50/22 
f 80/50/22 78/48/21 77/47/21 
f 79/49/22 81/51/23 82/52/23 
f 82/52/23 80/50/22 79/49/22 
f 81/51/23 71/53/18 74/54/18 
f 74/54/18 82/52/23 81/51/23 
f 75/56/24 72/57/24 71/60/24 
f 71/60/24 77/55/24 75/56/24 
f 81/59/24 79/58/24 77/55/24 
f 77/55/24 71/60/24 81/59/24 
f 73/55/25 76/61/25 78/57/25 
f 78/57/25 80/60/25 73/55/25 
f 73/55/25 80/60/25 82/62/25 
f 82/62/25 74/58/25 73/55/25 
f 83/63/26 84/64/26 85/65/26 
f 85/65/26 86/66/26 83/63/26 
f 87/67/27 88/68/27 89/69/27 
f 89/69/27 90/70/27 87/67/27 
f 90/70/28 83/63/28 86/66/28 
f 86/66/28 87/67/28 90/70/28 
f 91/69/29 92/70/29 93/67/29 
f 93/67/29 94/68/29 91/69/29 
f 95/65/30 96/66/30 97/63/30 
f 97/63/30 98/64/30 95/65/30 
f 92/70/31 97/63/31 96/66/31 
f 96/66/31 93/67/31 92/70/31 
f 99/71/32 100/72/33 101/73/34 
f 101/73/34 102/74/35 99/71/32 
f 101/73/34 103/75/36 104/76/37 
f 104/76/37 102/74/35 101/73/34 
f 101/73/34 100/72/33 105/77/38 
f 105/77/38 106/78/39 101/73/34 
f 105/77/38 107/79/40 106/78/39 
f 107/79/40 108/80/41 109/81/42 
f 109/81/42 106/78/39 107/79/40 
f 109/81/42 103/75/36 101/73/34 
f 101/73/34 106/78/39 109/81/42 
f 104/76/37 103/75/36 109/81/42 
f 109/81/42 110/82/43 104/76/37 
f 109/81/42 108/80/41 110/82/43 
f 107/79/40 105/77/38 111/83/44 
f 112/84/45 113/85/46 114/86/47 
f 114/86/47 115/87/48 112/84/45 
f 115/87/48 116/88/49 112/84/45 
f 117/89/50 118/90/50 119/91/50 
f 119/91/50 120/92/50 117/89/50 
f 121/93/51 122/94/52 123/95/53 
f 123/95/53 124/96/4 121/93/51 
f 123/95/53 125/97/54 126/98/55 
f 126/98/55 124/96/4 123/95/53 
f 126/98/55 127/99/56 128/100/57 
f 128/100/57 124/96/4 126/98/55 
f 128/100/57 129/101/58 121/93/51 
f 121/93/51 124/96/4 128/100/57 
f 126/98/55 125/97/54 130/102/59 
f 130/102/59 131/103/60 126/98/55 
f 130/102/59 100/72/61 132/104/62 
f 132/104/62 131/103/60 130/102/59 
f 132/104/62 133/105/63 134/106/64 
f 134/106/64 131/103/60 132/104/62 
f 134/106/64 127/99/56 126/98/55 
f 126/98/55 131/103/60 134/106/64 
f 135/107/65 136/108/66 130/102/59 
f 130/102/59 125/97/54 123/109/53 
f 130/102/59 123/109/53 137/110/67 
f 130/102/59 137/110/67 135/107/65 
f 123/109/53 122/111/52 116/88/49 
f 116/88/49 115/87/48 123/109/53 
f 115/87/48 114/86/47 138/112/68 
f 116/88/49 122/111/52 121/113/51 
f 121/113/51 139/114/69 116/88/49 
f 121/113/51 129/115/58 119/116/70 
f 119/116/70 139/114/69 121/113/51 
f 119/116/70 129/115/58 140/117/71 
f 141/118/72 142/119/73 120/120/74 
f 143/121/75 144/122/75 118/90/75 
f 118/90/75 117/89/75 143/121/75 
f 112/123/45 116/124/49 144/122/76 
f 144/122/76 143/121/76 112/123/45 
f 123/109/53 115/87/48 138/112/68 
f 138/112/68 145/125/77 123/109/53 
f 140/126/71 129/127/58 128/128/57 
f 128/128/57 146/129/78 140/126/71 
f 128/128/57 127/99/56 147/130/79 
f 147/130/79 146/129/78 128/128/57 
f 147/130/79 127/99/56 134/106/64 
f 134/106/64 148/131/80 147/130/79 
f 134/106/64 133/105/63 149/132/81 
f 149/132/81 148/131/80 134/106/64 
f 119/116/70 140/117/71 150/133/82 
f 119/116/70 150/133/82 141/118/72 
f 141/118/72 120/120/74 119/116/70 
f 123/109/53 145/125/77 137/110/67 
f 100/72/61 99/71/83 132/104/62 
f 111/83/84 105/77/85 130/102/59 
f 130/102/59 136/108/66 111/83/84 
f 105/77/85 100/72/61 130/102/59 
f 151/134/86 113/135/86 112/123/86 
f 112/123/86 143/121/86 151/134/86 
f 152/136/87 151/134/87 143/121/87 
f 143/121/87 117/89/87 152/136/87 
f 153/137/88 152/136/88 117/89/88 
f 117/89/88 120/92/88 153/137/88 
f 142/119/73 154/138/89 153/139/89 
f 153/139/89 120/120/74 142/119/73 
f 147/140/90 155/141/91 156/142/92 
f 156/142/92 146/143/93 147/140/90 
f 156/142/92 157/144/94 158/145/95 
f 158/145/95 146/143/93 156/142/92 
f 149/146/96 159/147/97 160/148/98 
f 160/148/98 148/149/99 149/146/96 
f 160/148/98 155/141/91 147/150/90 
f 147/150/90 148/149/99 160/148/98 
f 156/142/92 155/141/91 160/148/98 
f 160/148/98 161/151/100 156/142/92 
f 160/148/98 159/147/97 162/152/101 
f 162/152/101 161/151/100 160/148/98 
f 158/145/95 140/153/102 146/143/93 
f 150/154/103 140/155/102 158/145/95 
f 158/145/95 163/156/104 150/154/103 
f 164/157/105 163/156/104 158/145/95 
f 158/145/95 157/144/94 164/157/105 
f 164/157/105 157/144/94 165/158/106 
f 166/159/107 165/158/108 157/144/94 
f 166/159/107 157/144/94 156/142/92 
f 166/159/107 156/142/92 161/151/100 
f 161/151/100 162/152/101 167/160/109 
f 167/160/109 166/159/107 161/151/100 
f 162/152/101 168/161/110 167/160/109 
f 169/162/111 170/163/112 171/164/113 
f 171/164/113 172/165/114 169/162/111 
f 173/166/115 174/167/116 175/168/117 
f 171/164/113 170/163/112 176/169/118 
f 171/164/113 176/169/118 163/156/119 
f 171/164/113 163/156/119 177/170/120 
f 176/169/118 150/154/121 163/156/119 
f 164/157/122 165/158/123 178/171/124 
f 178/171/124 177/170/120 164/157/122 
f 178/171/124 174/167/116 171/164/113 
f 171/164/113 177/170/120 178/171/124 
f 176/172/118 170/163/112 141/173/125 
f 179/174/126 180/175/127 175/168/117 
f 175/168/117 181/176/128 179/174/126 
f 175/168/117 174/167/116 178/171/124 
f 178/171/124 181/176/128 175/168/117 
f 178/171/124 165/158/123 166/159/129 
f 166/159/129 181/176/128 178/171/124 
f 167/160/130 168/161/131 179/174/126 
f 179/174/126 181/176/128 167/160/130 
f 163/156/119 164/157/122 177/170/120 
f 181/176/128 166/159/129 167/160/130 
f 182/177/132 183/178/133 169/162/111 
f 169/162/111 172/165/114 182/177/132 
f 141/173/125 150/179/121 176/172/118 
f 141/173/125 170/163/112 169/162/111 
f 169/162/111 142/180/134 141/173/125 
f 169/162/111 183/178/133 154/181/135 
f 154/181/135 142/180/134 169/162/111 
f 171/164/113 174/167/116 173/166/115 
f 173/166/115 172/165/114 171/164/113 
f 184/182/136 185/183/137 186/184/138 
f 184/182/136 186/184/138 138/185/139 
f 184/182/136 138/185/139 114/186/140 
f 186/184/138 145/187/141 138/185/139 
f 186/184/138 185/183/137 187/188/142 
f 187/188/142 188/189/143 186/184/138 
f 187/188/142 189/190/144 190/191/145 
f 190/191/145 188/189/143 187/188/142 
f 190/191/145 191/192/146 137/193/147 
f 137/193/147 188/189/143 190/191/145 
f 137/193/147 145/187/141 186/184/138 
f 186/184/138 188/189/143 137/193/147 
f 190/194/145 189/195/144 192/196/148 
f 192/196/148 193/197/149 190/194/145 
f 192/196/148 194/198/150 195/199/151 
f 195/199/151 193/197/149 192/196/148 
f 195/199/151 110/200/152 108/201/153 
f 108/201/153 193/197/149 195/199/151 
f 196/202/154 191/203/146 190/194/145 
f 190/194/145 193/197/149 196/202/154 
f 197/204/155 194/198/150 192/196/148 
f 192/196/148 198/205/156 197/204/155 
f 192/196/148 189/195/144 187/188/142 
f 187/188/142 198/205/156 192/196/148 
f 187/188/142 185/183/137 199/206/157 
f 199/206/157 198/205/156 187/188/142 
f 199/206/157 13/207/158 197/204/155 
f 197/204/155 198/205/156 199/206/157 
f 137/208/147 191/203/146 135/209/159 
f 196/202/154 108/201/153 107/210/160 
f 107/210/160 136/211/161 196/202/154 
f 135/209/159 191/203/146 196/202/154 
f 196/202/154 136/211/161 135/209/159 
f 199/206/157 185/183/137 184/182/136 
f 107/210/160 111/212/162 136/211/161 
f 200/213/163 8/8/164 18/18/165 
f 18/18/165 201/214/166 200/213/163 
f 113/215/167 8/8/164 200/213/163 
f 200/213/163 114/216/140 113/215/167 
f 200/213/163 201/214/166 184/217/136 
f 184/217/136 114/216/140 200/213/163 
f 184/217/136 201/214/166 18/18/165 
f 18/18/165 199/218/157 184/217/136 
f 18/18/165 13/13/158 199/218/157 
f 202/219/168 203/220/169 204/221/170 
f 204/221/170 203/220/169 205/222/171 
f 205/222/171 206/223/172 204/221/170 
f 5/224/173 4/225/174 15/226/175 
f 207/227/176 208/228/177 1/229/178 
f 4/225/174 209/230/179 207/227/176 
f 207/227/176 1/229/178 4/225/174 
f 210/231/180 211/232/181 205/222/171 
f 205/222/171 203/220/169 210/231/180 
f 211/232/181 9/233/182 212/234/183 
f 212/234/183 205/222/171 211/232/181 
f 9/233/182 211/232/181 5/224/173 
f 210/231/180 209/230/179 4/225/174 
f 4/225/174 211/232/181 210/231/180 
f 213/235/184 214/236/185 215/237/186 
f 215/237/186 216/238/187 213/235/184 
f 217/239/188 216/238/187 215/237/186 
f 210/231/180 203/220/169 202/219/168 
f 210/231/180 202/219/168 217/239/188 
f 210/231/180 217/239/188 215/237/186 
f 210/231/180 207/227/176 209/230/179 
f 207/227/176 215/237/186 214/236/185 
f 214/236/185 208/228/177 207/227/176 
f 218/240/189 219/241/190 220/242/191 
f 218/240/189 221/243/192 222/244/193 
f 222/244/193 219/241/190 218/240/189 
f 222/244/193 223/245/194 224/246/195 
f 224/246/195 219/241/190 222/244/193 
f 224/246/195 225/247/196 220/242/191 
f 220/242/191 219/241/190 224/246/195 
f 226/248/197 227/249/198 222/244/193 
f 226/248/197 222/244/193 221/243/192 
f 226/248/197 221/243/192 228/250/199 
f 229/251/200 172/165/201 227/249/198 
f 227/249/198 226/248/197 229/251/200 
f 173/166/202 223/245/194 222/244/193 
f 222/244/193 227/249/198 173/166/202 
f 230/252/203 182/177/203 172/165/201 
f 172/165/201 229/251/200 230/252/203 
f 180/175/204 225/247/196 224/246/195 
f 224/246/195 175/168/205 180/175/204 
f 224/246/195 223/245/194 173/166/202 
f 173/166/202 175/168/205 224/246/195 
f 213/235/206 216/238/207 231/253/208 
f 216/238/207 232/254/209 233/255/210 
f 233/255/210 231/253/208 216/238/207 
f 233/255/210 234/256/211 231/253/208 
f 235/257/212 236/258/213 233/255/210 
f 233/255/210 232/254/209 235/257/212 
f 235/257/212 237/259/214 238/260/215 
f 238/260/215 236/258/213 235/257/212 
f 236/258/213 221/243/216 234/256/211 
f 234/256/211 233/255/210 236/258/213 
f 239/261/217 229/251/218 238/260/215 
f 238/260/215 237/259/214 239/261/217 
f 239/261/217 206/223/219 230/252/220 
f 230/252/220 229/251/218 239/261/217 
f 204/221/221 206/223/219 239/261/217 
f 202/219/222 204/221/221 239/261/217 
f 239/261/217 237/259/214 202/219/222 
f 202/219/222 237/259/214 235/257/212 
f 217/239/223 202/219/222 235/257/212 
f 235/257/212 232/254/209 217/239/223 
f 216/238/207 217/239/223 232/254/209 
f 221/243/216 236/258/213 228/250/224 
f 228/250/224 236/258/213 238/260/215 
f 238/260/215 226/248/225 228/250/224 
f 226/248/225 238/260/215 229/251/218 
f 218/240/226 234/256/211 221/243/216 
f 206/223/172 205/222/171 212/234/183 
f 172/165/201 173/166/202 227/249/198 
f 240/262/227 241/263/228 242/264/229 
f 242/264/229 243/265/230 240/262/227 
f 242/264/229 244/266/231 245/267/232 
f 245/267/232 243/265/230 242/264/229 
f 242/264/229 241/263/228 246/268/233 
f 246/268/233 247/269/234 248/270/235 
f 248/270/235 249/271/236 246/268/233 
f 246/268/233 244/266/231 242/264/229 
f 248/272/235 247/273/234 250/274/237 
f 250/274/237 251/275/238 248/272/235 
f 252/276/239 249/277/236 248/272/235 
f 248/272/235 251/275/238 252/276/239 
f 250/274/237 247/273/234 253/278/240 
f 253/278/240 254/279/241 250/274/237 
f 253/278/240 241/280/228 240/281/227 
f 240/281/227 254/279/241 253/278/240 
f 240/281/227 255/282/242 256/283/243 
f 256/283/243 254/279/241 240/281/227 
f 245/267/232 244/266/231 257/284/244 
f 257/284/244 258/285/245 245/267/232 
f 257/286/244 249/277/236 252/276/239 
f 252/276/239 258/285/245 257/286/244 
f 246/268/233 249/271/236 257/284/244 
f 257/284/244 244/266/231 246/268/233 
f 246/268/233 241/263/228 253/287/240 
f 253/287/240 247/269/234 246/268/233 
f 240/262/227 243/265/230 259/288/246 
f 259/288/246 255/289/242 240/262/227 
f 243/265/230 245/267/232 260/290/247 
f 260/290/247 259/288/246 243/265/230 
f 251/275/238 250/274/237 261/291/248 
f 261/291/248 262/292/249 251/275/238 
f 252/276/239 251/275/238 262/292/249 
f 262/292/249 263/293/250 252/276/239 
f 250/274/237 254/279/241 256/283/243 
f 256/283/243 261/291/248 250/274/237 
f 245/267/232 258/285/245 264/294/251 
f 264/294/251 260/290/247 245/267/232 
f 258/285/245 252/276/239 263/293/250 
f 263/293/250 264/294/251 258/285/245 
f 153/295/252 206/296/252 212/297/252 
f 212/297/252 8/8/252 153/295/252 
f 153/295/253 154/298/253 183/299/253 
f 230/300/254 183/299/254 182/301/254 
f 113/215/255 151/302/255 152/303/255 
f 152/303/255 153/295/255 113/215/255 
f 153/295/256 8/8/256 113/215/256 
f 206/296/257 153/295/257 183/299/257 
f 183/299/257 230/300/257 206/296/257 
f 8/8/258 212/297/258 9/9/258 
f 193/197/149 108/201/153 196/202/154 
f 265/304/259 266/305/259 267/306/259 
f 267/306/259 268/307/259 265/304/259 
f 268/307/4 267/306/4 269/308/4 
f 269/308/4 270/309/4 268/307/4 
f 270/309/260 269/308/260 271/310/260 
f 271/310/260 272/311/260 270/309/260 
f 273/312/261 274/313/261 275/314/261 
f 275/314/261 276/315/261 273/312/261 
f 277/316/4 278/317/4 279/318/4 
f 279/318/4 280/319/4 277/316/4 
f 281/320/262 282/321/262 279/318/262 
f 279/318/262 278/317/262 281/320/262 
f 283/322/263 284/323/263 277/316/263 
f 277/316/263 280/319/263 283/322/263 
f 281/320/264 278/317/264 285/324/264 
f 285/324/264 286/325/264 281/320/264 
f 278/317/4 277/316/4 287/326/4 
f 287/326/4 285/324/4 278/317/4 
f 277/316/265 284/323/265 288/327/265 
f 288/327/265 287/326/265 277/316/265 
f 286/325/266 285/324/266 275/314/266 
f 275/314/266 274/328/266 286/325/266 
f 285/324/4 287/326/4 276/315/4 
f 276/315/4 275/314/4 285/324/4 
f 287/326/267 288/327/267 273/329/267 
f 273/329/267 276/315/267 287/326/267 
f 289/304/268 290/305/268 291/306/268 
f 291/306/268 292/307/268 289/304/268 
f 292/307/4 291/306/4 293/308/4 
f 293/308/4 294/309/4 292/307/4 
f 294/309/269 293/308/269 295/310/269 
f 295/310/269 296/311/269 294/309/269 
f 297/312/261 298/313/261 299/314/261 
f 299/314/261 300/315/261 297/312/261 
f 301/316/4 302/317/4 303/318/4 
f 303/318/4 304/319/4 301/316/4 
f 305/320/270 306/321/270 303/318/270 
f 303/318/270 302/317/270 305/320/270 
f 307/322/271 308/323/271 301/316/271 
f 301/316/271 304/319/271 307/322/271 
f 305/320/264 302/317/264 309/324/264 
f 309/324/264 310/325/264 305/320/264 
f 302/317/4 301/316/4 311/326/4 
f 311/326/4 309/324/4 302/317/4 
f 301/316/265 308/323/265 312/327/265 
f 312/327/265 311/326/265 301/316/265 
f 310/325/266 309/324/266 299/314/266 
f 299/314/266 298/328/266 310/325/266 
f 309/324/4 311/326/4 300/315/4 
f 300/315/4 299/314/4 309/324/4 
f 311/326/267 312/327/267 297/329/267 
f 297/329/267 300/315/267 311/326/267 
f 313/304/272 314/305/272 315/306/272 
f 315/306/272 316/307/272 313/304/272 
f 316/307/4 315/306/4 317/308/4 
f 317/308/4 318/309/4 316/307/4 
f 318/309/273 317/308/273 319/310/273 
f 319/310/273 320/311/273 318/309/273 
f 321/304/274 322/305/274 323/306/274 
f 323/306/274 324/307/274 321/304/274 
f 324/307/4 323/306/4 325/308/4 
f 325/308/4 326/309/4 324/307/4 
f 326/309/275 325/308/275 327/310/275 
f 327/310/275 328/311/275 326/309/275 
f 215/237/186 207/227/176 210/231/180 
f 139/114/69 119/116/70 329/330/276 
f 116/88/49 139/114/69 329/330/276 
f 18/18/165 17/17/175 13/13/158 
f 197/204/155 13/207/158 12/331/277 
f 5/224/173 211/232/181 4/225/174 
f 330/332/278 331/333/279 332/334/279 
f 332/334/279 333/335/278 330/332/278 
f 334/336/280 335/337/281 333/335/281 
f 333/335/281 332/334/280 334/336/280 
f 336/338/282 337/339/283 335/337/283 
f 335/337/283 334/336/282 336/338/282 
f 333/335/281 335/337/281 338/340/284 
f 338/340/284 339/341/284 333/335/281 
f 335/337/283 337/339/283 340/342/285 
f 340/342/285 338/340/285 335/337/283 
f 330/332/278 333/335/278 339/341/286 
f 339/341/286 341/343/286 330/332/278 
f 339/341/284 338/340/284 342/344/287 
f 342/344/287 343/345/287 339/341/284 
f 338/340/285 340/342/285 344/346/288 
f 344/346/288 342/344/288 338/340/285 
f 341/343/286 339/341/286 343/345/289 
f 343/345/289 345/347/289 341/343/286 
f 343/345/287 342/344/287 346/348/290 
f 342/344/288 344/346/288 347/349/291 
f 347/349/291 346/348/291 342/344/288 
f 343/350/292 346/351/292 348/352/292 
f 348/352/292 349/353/292 343/350/292 
f 346/354/293 347/355/293 350/356/293 
f 350/356/293 348/352/293 346/354/293 
f 345/357/294 343/358/294 349/353/294 
f 349/353/294 351/359/294 345/357/294 
f 351/359/295 349/353/295 352/360/295 
f 352/360/295 353/361/295 351/359/295 
f 354/362/296 355/363/296 356/364/297 
f 356/364/297 357/365/297 354/362/296 
f 358/366/298 359/367/279 354/362/279 
f 354/362/279 357/365/298 358/366/298 
f 360/368/282 361/369/299 356/364/299 
f 356/364/299 355/363/282 360/368/282 
f 356/364/297 362/370/300 363/371/300 
f 363/371/300 357/365/297 356/364/297 
f 357/365/298 363/371/301 364/372/301 
f 364/372/301 358/366/298 357/365/298 
f 361/369/299 365/373/302 362/370/302 
f 362/370/302 356/364/299 361/369/299 
f 362/370/300 366/374/303 367/375/303 
f 367/375/303 363/371/300 362/370/300 
f 363/371/301 367/375/304 368/376/304 
f 368/376/304 364/372/301 363/371/301 
f 365/373/302 369/377/305 366/374/305 
f 366/374/305 362/370/302 365/373/302 
f 366/374/303 370/378/306 367/375/303 
f 367/375/304 370/378/307 371/379/307 
f 371/379/307 368/376/304 367/375/304 
f 366/380/308 352/360/308 372/381/308 
f 372/381/308 370/382/308 366/380/308 
f 370/383/309 372/381/309 373/384/309 
f 373/384/309 371/385/309 370/383/309 
f 369/386/310 353/361/310 352/360/310 
f 352/360/310 366/387/310 369/386/310 
f 348/352/311 372/381/311 352/360/311 
f 352/360/311 349/353/311 348/352/311 
f 350/356/312 373/384/312 372/381/312 
f 372/381/312 348/352/312 350/356/312 
# 570 faces

