# 3ds Max Wavefront OBJ Exporter v0.97b - (c)2007 guruware
# File Created: 20.04.2017 11:07:45

mtllib Arrow.mtl

#
# object Erika_Archer_Arrow_Mesh
#

v  0.0517 0.1521 -12.0319
v  -0.1271 0.0940 -12.0319
v  -0.1271 0.0940 16.2045
v  0.0517 0.1521 16.2045
v  -0.1271 -0.0940 -12.0319
v  -0.1271 -0.0940 16.2045
v  0.0517 -0.1521 -12.0319
v  0.0517 -0.1521 16.2045
v  0.1623 0.0000 -12.0319
v  0.1623 -0.0000 16.2045
v  0.0023 0.0000 -12.0319
v  0.0023 -0.0000 16.2045
v  0.0000 -0.0544 17.3331
v  0.0206 -0.0385 17.1943
v  0.0307 -0.0000 17.3331
v  0.0000 -0.0000 17.5116
v  0.0206 0.0385 17.1943
v  0.0000 0.0544 17.3331
v  -0.0206 0.0385 17.1943
v  -0.0307 -0.0000 17.3331
v  -0.0206 -0.0385 17.1943
v  0.0531 0.1444 16.4670
v  0.0000 0.2322 16.3959
v  0.0790 0.2704 15.8360
v  0.0000 0.4288 15.6381
v  -0.0790 0.2704 15.8360
v  -0.0531 0.1444 16.4670
v  0.1288 -0.0000 15.6381
v  0.0000 -0.0000 15.3994
v  0.0790 -0.2704 15.8360
v  0.0000 -0.4288 15.6381
v  -0.0790 -0.2704 15.8360
v  -0.1288 -0.0000 15.6381
v  0.0531 -0.1444 16.4670
v  0.0000 -0.2322 16.3959
v  -0.0531 -0.1444 16.4670
v  0.0858 -0.0000 16.3959
v  -0.0858 -0.0000 16.3959
v  -0.0000 0.6653 -9.4709
v  -0.0000 1.0486 -12.0252
v  0.0000 0.1011 -12.0252
v  -0.0000 0.1011 -9.4709
v  0.0000 0.6653 -9.4709
v  0.0000 0.1011 -9.4709
v  -0.0000 0.1011 -12.0252
v  0.0000 1.0486 -12.0252
v  -0.5762 -0.3327 -9.4709
v  -0.9081 -0.5243 -12.0252
v  -0.0876 -0.0506 -12.0252
v  -0.0876 -0.0506 -9.4709
v  0.5762 -0.3327 -9.4709
v  0.9081 -0.5243 -12.0252
v  0.0876 -0.0506 -12.0252
v  0.0876 -0.0506 -9.4709
# 54 vertices

vn 0.3090 0.9511 0.0000
vn -0.8090 0.5878 0.0000
vn -0.8090 -0.5878 -0.0000
vn 0.3090 -0.9511 -0.0000
vn 1.0000 -0.0000 -0.0000
vn -0.0000 0.0000 -1.0000
vn 0.0000 0.0000 -1.0000
vn 0.0000 -0.0000 1.0000
vn -0.0000 -0.0000 1.0000
vn -0.0000 -0.9770 0.2132
vn 0.8992 -0.4267 0.0972
vn 0.9951 -0.0000 0.0990
vn 0.8992 0.4267 0.0972
vn 0.0000 0.9770 0.2132
vn -0.8992 0.4267 0.0972
vn -0.9951 -0.0000 0.0990
vn -0.8992 -0.4267 0.0972
vn 0.9156 0.3896 0.0992
vn 0.0000 0.9743 0.2251
vn 0.9342 0.3545 -0.0406
vn -0.0000 0.9790 -0.2038
vn -0.9342 0.3545 -0.0406
vn -0.9156 0.3896 0.0992
vn 0.9900 0.0000 -0.1408
vn 0.9342 -0.3545 -0.0406
vn 0.0000 -0.9790 -0.2038
vn -0.9342 -0.3545 -0.0406
vn -0.9900 0.0000 -0.1408
vn 0.9156 -0.3896 0.0992
vn 0.0000 -0.9743 0.2251
vn -0.9156 -0.3896 0.0992
vn 0.9978 -0.0000 0.0664
vn -0.9978 -0.0000 0.0664
vn -1.0000 -0.0000 -0.0000
vn 0.5000 -0.8660 -0.0000
vn -0.5000 0.8660 0.0000
vn 0.5000 0.8660 0.0000
vn -0.5000 -0.8660 -0.0000
# 38 vertex normals

vt 0.0269 0.0129 0.0000
vt 0.0404 0.0119 0.0000
vt 0.0404 0.9891 0.0000
vt 0.0269 0.9881 0.0000
vt 0.0548 0.0104 0.0000
vt 0.0548 0.9906 0.0000
vt 0.0692 0.0104 0.0000
vt 0.0692 0.9906 0.0000
vt 0.0836 0.0119 0.0000
vt 0.0836 0.9891 0.0000
vt 0.0970 0.0129 0.0000
vt 0.0970 0.9881 0.0000
vt 0.3437 0.0364 0.0000
vt 0.3772 0.0255 0.0000
vt 0.3680 0.0529 0.0000
vt 0.3437 0.0717 0.0000
vt 0.3772 0.0826 0.0000
vt 0.3980 0.0541 0.0000
vt 0.5553 0.9736 0.0000
vt 0.5267 0.9643 0.0000
vt 0.5474 0.9482 0.0000
vt 0.5267 0.9342 0.0000
vt 0.5553 0.9249 0.0000
vt 0.5730 0.9492 0.0000
vt 0.5451 0.8243 0.0000
vt 0.5517 0.7651 0.0000
vt 0.5737 0.8197 0.0000
vt 0.5798 0.8929 0.0000
vt 0.5921 0.7632 0.0000
vt 0.6025 0.8211 0.0000
vt 0.3599 0.1869 0.0000
vt 0.3532 0.2454 0.0000
vt 0.3309 0.1903 0.0000
vt 0.3323 0.1167 0.0000
vt 0.3127 0.2462 0.0000
vt 0.3023 0.1876 0.0000
vt 0.6270 0.4585 0.0000
vt 0.6754 0.4343 0.0000
vt 0.6636 0.1942 0.0000
vt 0.7370 0.1075 0.0000
vt 0.5418 0.8899 0.0000
vt 0.4628 0.8083 0.0000
vt 0.4085 0.5471 0.0000
vt 0.4584 0.5679 0.0000
vt 0.5482 0.1224 0.0000
vt 0.5434 0.0111 0.0000
vt 0.4389 0.2033 0.0000
vt 0.3599 0.1227 0.0000
vt 0.1645 0.9003 0.0000
vt 0.2379 0.8145 0.0000
vt 0.3524 0.8879 0.0000
vt 0.3552 0.9992 0.0000
vt 0.4959 0.4632 0.0000
vt 0.4445 0.4428 0.0000
vt 0.2773 0.5512 0.0000
vt 0.2274 0.5751 0.0000
vt 0.5606 0.4333 0.0000
vt 0.3439 0.5767 0.0000
vt 0.7748 0.0085 0.0000
vt 0.6273 0.9915 0.0000
vt 0.9920 0.9915 0.0000
vt 0.9920 0.0085 0.0000
# 62 texture coords

g Erika_Archer_Arrow_Mesh
usemtl Arrow_MAT
s off
f 1/1/1 2/2/2 3/3/2 
f 3/3/2 4/4/1 1/1/1 
f 2/2/2 5/5/3 6/6/3 
f 6/6/3 3/3/2 2/2/2 
f 5/5/3 7/7/4 8/8/4 
f 8/8/4 6/6/3 5/5/3 
f 7/7/4 9/9/5 10/10/5 
f 10/10/5 8/8/4 7/7/4 
f 9/9/5 1/11/1 4/12/1 
f 4/12/1 10/10/5 9/9/5 
f 2/13/6 1/14/7 11/15/6 
f 5/16/6 2/13/6 11/15/6 
f 7/17/7 5/16/6 11/15/6 
f 9/18/7 7/17/7 11/15/6 
f 1/14/7 9/18/7 11/15/6 
f 4/19/8 3/20/9 12/21/9 
f 3/20/9 6/22/9 12/21/9 
f 6/22/9 8/23/8 12/21/9 
f 8/23/8 10/24/8 12/21/9 
f 10/24/8 4/19/8 12/21/9 
f 13/25/10 14/26/11 15/27/12 
f 15/27/12 16/28/8 13/25/10 
f 15/27/12 17/29/13 18/30/14 
f 18/30/14 16/28/8 15/27/12 
f 18/31/14 19/32/15 20/33/16 
f 20/33/16 16/34/8 18/31/14 
f 20/33/16 21/35/17 13/36/10 
f 13/36/10 16/34/8 20/33/16 
f 18/30/14 17/29/13 22/37/18 
f 22/37/18 23/38/19 18/30/14 
f 22/37/18 24/39/20 25/40/21 
f 25/40/21 23/38/19 22/37/18 
f 25/41/21 26/42/22 27/43/23 
f 27/43/23 23/44/19 25/41/21 
f 27/43/23 19/32/15 18/31/14 
f 18/31/14 23/44/19 27/43/23 
f 25/40/21 24/39/20 28/45/24 
f 28/45/24 29/46/7 25/40/21 
f 28/45/24 30/47/25 31/48/26 
f 31/48/26 29/46/7 28/45/24 
f 31/49/26 32/50/27 33/51/28 
f 33/51/28 29/52/7 31/49/26 
f 33/51/28 26/42/22 25/41/21 
f 25/41/21 29/52/7 33/51/28 
f 31/48/26 30/47/25 34/53/29 
f 34/53/29 35/54/30 31/48/26 
f 34/53/29 14/26/11 13/25/10 
f 13/25/10 35/54/30 34/53/29 
f 13/36/10 21/35/17 36/55/31 
f 36/55/31 35/56/30 13/36/10 
f 36/55/31 32/50/27 31/49/26 
f 31/49/26 35/56/30 36/55/31 
f 34/53/29 30/47/25 28/45/24 
f 28/45/24 37/57/32 34/53/29 
f 28/45/24 24/39/20 22/37/18 
f 22/37/18 37/57/32 28/45/24 
f 22/37/18 17/29/13 15/27/12 
f 15/27/12 37/57/32 22/37/18 
f 15/27/12 14/26/11 34/53/29 
f 34/53/29 37/57/32 15/27/12 
f 36/55/31 21/35/17 20/33/16 
f 20/33/16 38/58/33 36/55/31 
f 20/33/16 19/32/15 27/43/23 
f 27/43/23 38/58/33 20/33/16 
f 27/43/23 26/42/22 33/51/28 
f 33/51/28 38/58/33 27/43/23 
f 33/51/28 32/50/27 36/55/31 
f 36/55/31 38/58/33 33/51/28 
f 39/59/34 40/60/34 41/61/34 
f 41/61/34 42/62/34 39/59/34 
f 43/59/5 44/62/5 45/61/5 
f 45/61/5 46/60/5 43/59/5 
f 47/59/35 48/60/35 49/61/35 
f 49/61/35 50/62/35 47/59/35 
f 47/59/36 50/62/36 49/61/36 
f 49/61/36 48/60/36 47/59/36 
f 51/59/37 52/60/37 53/61/37 
f 53/61/37 54/62/37 51/59/37 
f 51/59/38 54/62/38 53/61/38 
f 53/61/38 52/60/38 51/59/38 
# 80 faces

